[
  {
    "fullName": "first author",
    "email": "mhs@gmail.com",
    "confirmEmail": "mhs@gmail.com",
    "bookName": "first title",
    "published": "year1",
    "genre": "genre1"
  },
  {
    "fullName": "second author",
    "email": "mhs1@gmail.com",
    "confirmEmail": "mhs1@gmail.com",
    "bookName": "second title",
    "published": "year2",
    "genre": "genre2"
  },
  {
    "fullName": "second author",
    "email": "mhs2@gmail.com",
    "confirmEmail": "mhs2@gmail.com",
    "bookName": "second title",
    "published": "year3",
    "genre": "genre3"
  }
]
